{

  "rules": {
    "align": [
      false,
      "parameters",
      "arguments",
      "statements"
    ],
    "ban": false,
    "class-name": true,
    "comment-format": [true, "check-space"],
    "curly": false,
    "eofline": true,
    "forin": false,
    "indent": [true, "spaces"],
    "interface-name": false,
    "jsdoc-format": true,
    "label-position": true,
    "label-undefined": true,
    "max-line-length": [
      true,
      180
    ],
    "member-access": true,
    "member-ordering": [false],
    "no-any": false,
    "no-arg": true,
    "no-bitwise": true,
    "no-conditional-assignment": true,
    "no-consecutive-blank-lines": true,
    "no-console": [false],
    "no-construct": false,
    "no-constructor-vars": false,
    "no-debugger": true,
    "no-duplicate-key": true,
    "no-duplicate-variable": true,
    "no-empty": true,
    "no-eval": true,
    "no-inferrable-types": false,
    "no-internal-module": true,
    "no-require-imports": false,
    "no-shadowed-variable": true,
    "no-string-literal": false,
    "no-switch-case-fall-through": true,
    "no-trailing-whitespace": true,
    "no-unreachable": true,
    "no-unused-variable": [
      true,
      "check-parameters",
      {
        "ignore-pattern": "^ng*|^on*|^ionView*"
      }
    ],
    "no-use-before-declare": true,
    "no-var-keyword": true,
    "no-var-requires": true,
    "object-literal-sort-keys": false,
    "one-line": [true, "check-open-brace", "check-whitespace"],
    "quotemark": [true, "simple"],
    "radix": false,
    "semicolon": false,
    "switch-default": false,
    "trailing-comma": [
      false,
      {
        "multiline": "always",
        "singleline": "never"
      }
    ],
    "triple-equals": [true, "allow-null-check"],
    "typedef": [
      false,
      "call-signature",
      "parameter",
      "property-declaration",
      "variable-declaration",
      "member-variable-declaration"
    ],
    "typedef-whitespace": [true, {
      "call-signature": "nospace",
      "index-signature": "nospace",
      "parameter": "nospace",
      "property-declaration": "nospace",
      "variable-declaration": "nospace"
    }],
    "use-strict": [
      false,
      "check-module",
      "check-function"
    ],
    "variable-name": [true, "ban-keywords"],
    "whitespace": [true,
      "check-branch",
      "check-decl",
      "check-operator",
      "check-separator",
      "check-type"
    ]
  },
  "jsRules": {
    "indent": [true],
    "no-duplicate-variable": true,
    "no-eval": true,
    "no-trailing-whitespace": true,
    "one-line": [true, "check-open-brace", "check-whitespace"],
    "quotemark": [true, "double"],
    "semicolon": false,
    "triple-equals": [true, "allow-null-check"],
    "variable-name": [true, "ban-keywords"],
    "whitespace": [true,
      "check-branch",
      "check-decl",
      "check-operator",
      "check-separator",
      "check-type"
    ]
  }
}
